<?xml version="1.0" encoding="utf-8"?>
<!-- Generator: Adobe Illustrator 21.0.1, SVG Export Plug-In . SVG Version: 6.00 Build 0)  -->
<svg version="1.1" id="Layer_1" xmlns="http://www.w3.org/2000/svg" xmlns:xlink="http://www.w3.org/1999/xlink" x="0px" y="0px"
	 viewBox="0 0 16 16" style="enable-background:new 0 0 16 16;" xml:space="preserve">
<style type="text/css">
	.st0{fill:#FFFFFF;}
</style>
<title>knowmore_icon</title>
<desc>Created with Sketch.</desc>
<path class="st0" d="M8,16L8,16c-0.5,0-0.8-0.4-0.8-0.8V0.8C7.1,0.4,7.5,0,8,0h0c0.5,0,0.8,0.4,0.8,0.8v14.3C8.8,15.6,8.4,16,8,16z"
	/>
<path class="st0" d="M8.6,15.8L8.6,15.8c-0.3,0.3-0.9,0.3-1.2,0l-2.9-2.9c-0.3-0.3-0.3-0.9,0-1.2l0,0c0.3-0.3,0.9-0.3,1.2,0l2.9,2.9
	C8.9,14.9,8.9,15.4,8.6,15.8z"/>
<path class="st0" d="M7.4,15.8L7.4,15.8c0.3,0.3,0.9,0.3,1.2,0l2.9-2.9c0.3-0.3,0.3-0.9,0-1.2l0,0c-0.3-0.3-0.9-0.3-1.2,0l-2.9,2.9
	C7,14.9,7,15.4,7.4,15.8z"/>
<path class="st0" d="M7.4,0.2L7.4,0.2c0.3-0.3,0.9-0.3,1.2,0l2.9,2.9c0.3,0.3,0.3,0.9,0,1.2l0,0c-0.3,0.3-0.9,0.3-1.2,0L7.4,1.4
	C7,1.1,7,0.6,7.4,0.2z"/>
<path class="st0" d="M8.6,0.2L8.6,0.2c-0.3-0.3-0.9-0.3-1.2,0L4.5,3.1C4.2,3.4,4.2,4,4.5,4.3l0,0c0.3,0.3,0.9,0.3,1.2,0l2.9-2.9
	C8.9,1.1,8.9,0.6,8.6,0.2z"/>
</svg>
