<?xml version="1.0" encoding="UTF-8"?>
<svg width="20px" height="20px" viewBox="0 0 20 20" version="1.1" xmlns="http://www.w3.org/2000/svg" xmlns:xlink="http://www.w3.org/1999/xlink">
    <!-- Generator: Sketch 42 (36781) - http://www.bohemiancoding.com/sketch -->
    <title>x copy</title>
    <desc>Created with Sketch.</desc>
    <defs></defs>
    <g id="Screens" stroke="none" stroke-width="1" fill="none" fill-rule="evenodd">
        <g id="19_2" transform="translate(-990.000000, -150.000000)" fill="#CCCCCC">
            <g id="title-copy-2" transform="translate(240.000000, 120.000000)">
                <path d="M760,38.992757 L751.007243,30 L750,31.007243 L758.992757,40 L750,48.992757 L751.007243,50 L760,41.007243 L768.992757,50 L770,48.992757 L761.007243,40 L770,31.007243 L768.992757,30 L760,38.992757 Z" id="x-copy"></path>
            </g>
        </g>
    </g>
</svg>